digraph {
    graph [pad="0.0", nodesep="1", ranksep="2", splines="true"];
    node [shape=plain, fontname="DejaVu Sans"];
    rankdir=BT;


Experiment [label=<
<table border="1" cellborder="0" cellspacing="1">
  <tr><td><b>experiment</b></td><td><i>Table: Experiments</i></td></tr>
  <tr><td port="eidL">experiment_id</td><td port="eid"><i>Unique experiment ID</i></td></tr>
  <tr><td>filename</td><td><i>Experiment file name</i></td></tr>
  <tr><td>comment</td><td><i>User comments</i></td></tr>
  <tr><td>duration</td><td><i>Duration of experiment [ms]</i></td></tr>
  <tr><td>length</td><td><i>Length of the scan line [μm]</i></td></tr>
  <tr><td>pixels_time</td><td><i>Number of pixels in temporal dimension</i></td></tr>
  <tr><td>pixels_space</td><td><i>Number of pixels in spatial dimension</i></td></tr>
</table>>];

// CREATE TABLE roi(experiment_id text, roi_id text PRIMARY KEY,
// x0 integer, y0 integer,
// x1 integer, y1 integer, FOREIGN KEY (experiment_id) REFERENCES experiment(experiment_id) ON DELETE CASCADE);
Roi [label=<
<table border="1" cellborder="0" cellspacing="1">
  <tr><td><b>roi</b></td><td><i>Table: Regions with sparks</i></td></tr>
  <tr><td>experiment_id</td><td port="eid"><i>Reference to experiment ID</i></td></tr>
  <tr><td port="rid">roi_id</td><td><i>Unique ROI ID</i></td></tr>
  <tr><td>x0</td><td><i>Roi start, time coordinate [pixels]</i></td></tr>
  <tr><td>x1</td><td><i>Roi end, time coordinate [pixels]</i></td></tr>
  <tr><td>y0</td><td><i>Roi start, space coordinate [pixels]</i></td></tr>
  <tr><td>y1</td><td><i>Roi end, space coordinate [pixels]</i></td></tr>
</table>>];

Stage [label=<
<table border="1" cellborder="0" cellspacing="1">
  <tr><td><b>stage</b></td><td><i>Table: Experiment stages</i></td></tr>
  <tr><td>experiment_id</td><td port="eid"><i>Reference to experiment ID</i></td></tr>
  <tr><td port="sid">stage_id</td><td><i>Unique stage ID</i></td></tr>
  <tr><td>name</td><td><i>Name</i></td></tr>
  <tr><td>spark_analysis</td><td><i>Set to one if used for sparks analysis, zero otherwise</i></td></tr>
  <tr><td>start</td><td><i>Start time of the stage [ms]</i></td></tr>
  <tr><td>end</td><td><i>End time of the stage [ms]</i></td></tr>
  <tr><td>max</td><td><i>Maximal intensity [AU]</i></td></tr>
  <tr><td>min</td><td><i>Minimal intensity [AU]</i></td></tr>
  <tr><td>mean</td><td><i>Mean intensity [AU]</i></td></tr>
  <tr><td>percentile001</td><td><i>Intensity corresponding to 0.1% percentile [AU]</i></td></tr>
  <tr><td>percentile999</td><td><i>Intensity corresponding to 99.9% percentile [AU]</i></td></tr>
</table>>];

// CREATE TABLE image(experiment_id text PRIMARY KEY,
//  accept_as_possible_area DOUBLE PRECISION,
//  accept_as_possible_peak DOUBLE PRECISION,
//  bg DOUBLE PRECISION,median_space DOUBLE PRECISION,median_time DOUBLE PRECISION,
//  min_area INTEGER,sigma_space DOUBLE PRECISION,sigma_time DOUBLE PRECISION,
//  window DOUBLE PRECISION,FOREIGN KEY (experiment_id) REFERENCES experiment(experiment_id) ON DELETE CASCADE);

Image [label=<
<table border="1" cellborder="0" cellspacing="1">
  <tr><td><b>image</b></td><td><i>Table: Image settings</i></td></tr>
  <tr><td port="eid">experiment_id</td><td><i>Reference to experiment ID</i></td></tr>
  <tr><td>...</td><td><i>Various settings</i></td></tr>
</table>>];

// CREATE TABLE spark(roi_id text PRIMARY KEY, enforce_monotonic_space INTEGER,enforce_monotonic_time INTEGER,
// slice_by_location INTEGER,slice_by_time INTEGER,space_spline_nodes_after INTEGER,space_spline_nodes_before INTEGER,
// time_spline_nodes_after INTEGER,time_spline_nodes_before INTEGER,amplitude DOUBLE PRECISION,
// amplitude_blurred DOUBLE PRECISION,amplitude_blurred_f0 DOUBLE PRECISION,amplitude_f0 DOUBLE PRECISION,
// f0 DOUBLE PRECISION,location_space DOUBLE PRECISION,location_time DOUBLE PRECISION,
// space_half_decay DOUBLE PRECISION,space_half_raise DOUBLE PRECISION,space_half_width DOUBLE PRECISION,
// space_spline_amplitude DOUBLE PRECISION,space_spline_amplitude_f0 DOUBLE PRECISION,
// spark_size DOUBLE PRECISION,time_half_decay DOUBLE PRECISION,
// time_half_raise DOUBLE PRECISION,time_half_width DOUBLE PRECISION,time_spline_amplitude DOUBLE PRECISION,
// time_spline_amplitude_f0 DOUBLE PRECISION,FOREIGN KEY (roi_id) REFERENCES roi(roi_id) ON DELETE CASCADE);
Spark [label=<
<table border="1" cellborder="0" cellspacing="1">
  <tr><td><b>sparks</b></td><td><i>Table: Sparks</i></td></tr>
  <tr><td port="rid">roi_id</td><td><i>Reference to ROI ID</i></td></tr>
  <tr><td>amplitude</td><td><i>Intensity of the corrected image at spark location [AU]</i></td></tr>
  <tr><td>amplitude_blurred</td><td><i>Intensity of the blurred corrected image at spark location [AU]</i></td></tr>
  <tr><td>amplitude_f0</td><td><i>amplitude/f0</i></td></tr>
  <tr><td>amplitude_blurred_f0</td><td><i>amplitude_blurred/f0</i></td></tr>
  <tr><td>f0</td><td><i>Background fluorescence at spark location</i></td></tr>
  <tr><td>location_space </td><td><i>Location of spark, spatial coordinate [μm]</i></td></tr>
  <tr><td>location_time </td><td><i>Location of spark, time coordinate [μm]</i></td></tr>
  <tr><td>space_half_width </td><td><i>Half-width of the spark [μm]</i></td></tr>
  <tr><td>space_half_raise </td><td><i>Width of the raising stage [μm]</i></td></tr>
  <tr><td>space_half_decay</td><td><i>Width of the decay stage [μm]</i></td></tr>
  <tr><td>space_spline_amplitude</td><td><i>Amplitude of the spline used to fit spatial intensity changes [AU]</i></td></tr>
  <tr><td>space_spline_amplitude_f0</td><td><i>space_spline_amplitude/f0</i></td></tr>
  <tr><td>spark_size</td><td><i>Size of the spark [μm*ms]</i></td></tr>
  <tr><td>time_half_width</td><td><i>Half-duration of the spark [ms]</i></td></tr>
  <tr><td>time_half_raise</td><td><i>Duration of the raising stage [ms]</i></td></tr>
  <tr><td>time_half_decay</td><td><i>Duration of the decay stage [ms]</i></td></tr>
  <tr><td>time_spline_amplitude</td><td><i>Amplitude of the spline used to fit temporal intensity changes [AU]</i></td></tr>
  <tr><td>time_spline_amplitude_f0</td><td><i>time_spline_amplitude/f0</i></td></tr>
  <tr><td>...</td><td><i>Various settings</i></td></tr>
</table>>];

Stage:eid -> Experiment
Image:eid -> Experiment
Roi:eid -> Experiment
Spark:rid -> Roi
}
